[{
  "Id" : 1,
  "Name":"Nate",
  "Age": 30,
  "Race":"Human",
  "Stats": [{
    "Name": "Atk",
    "Value": 10
    },
    {
    "Name": "Def",
    "Value": 20
    },
    {
    "Name": "Spcl",
    "Value": 30
    },
    {
      "Name": "Points",
      "Value": 0
    }],
    
    "Desc": "A little about me"
},
{
  "Id" : 2,
  "Name":"Bob",
  "Age": 20,
  "Race":"Elf",
  "Stats": [{
    "Name": "Atk",
    "Value": 10
    },
    {
    "Name": "Def",
    "Value": 20
    },
    {
    "Name": "Spcl",
    "Value": 30
    },
    {
      "Name": "Points",
      "Value": 0
    }],
    
    "Desc": "A little about me"
}]